…
``` r
filter(flights, month == 1, day == 1)
```

    ## # A tibble: 842 x 19
    ##     year month   day dep_time sched_dep_time dep_delay arr_time
    ##    <int> <int> <int>    <int>          <int>     <dbl>    <int>
    ##  1  2013     1     1      517            515         2      830
    ##  2  2013     1     1      533            529         4      850
    ##  3  2013     1     1      542            540         2      923
    ##  4  2013     1     1      544            545        -1     1004
    ##  5  2013     1     1      554            600        -6      812
    ##  6  2013     1     1      554            558        -4      740
    ##  7  2013     1     1      555            600        -5      913
    ##  8  2013     1     1      557            600        -3      709
    ##  9  2013     1     1      557            600        -3      838
    ## 10  2013     1     1      558            600        -2      753
    ## # ... with 832 more rows, and 12 more variables: sched_arr_time <int>,
    ## #   arr_delay <dbl>, carrier <chr>, flight <int>, tailnum <chr>,
    ## #   origin <chr>, dest <chr>, air_time <dbl>, distance <dbl>, hour <dbl>,
    ## #   minute <dbl>, time_hour <dttm>
…
``` r
filter(flights, month == 11 | month == 12)
```

    ## # A tibble: 55,403 x 19
    ##     year month   day dep_time sched_dep_time dep_delay arr_time
    ##    <int> <int> <int>    <int>          <int>     <dbl>    <int>
    ##  1  2013    11     1        5           2359         6      352
    ##  2  2013    11     1       35           2250       105      123
    ##  3  2013    11     1      455            500        -5      641
    ##  4  2013    11     1      539            545        -6      856
    ##  5  2013    11     1      542            545        -3      831
    ##  6  2013    11     1      549            600       -11      912
    ##  7  2013    11     1      550            600       -10      705
    ##  8  2013    11     1      554            600        -6      659
    ##  9  2013    11     1      554            600        -6      826
    ## 10  2013    11     1      554            600        -6      749
    ## # ... with 55,393 more rows, and 12 more variables: sched_arr_time <int>,
    ## #   arr_delay <dbl>, carrier <chr>, flight <int>, tailnum <chr>,
    ## #   origin <chr>, dest <chr>, air_time <dbl>, distance <dbl>, hour <dbl>,
    ## #   minute <dbl>, time_hour <dttm>

``` r
# filter(flights, month == 11 & month == 12)


filter(flights, month == 11 | 12)
```

    ## # A tibble: 336,776 x 19
    ##     year month   day dep_time sched_dep_time dep_delay arr_time
    ##    <int> <int> <int>    <int>          <int>     <dbl>    <int>
    ##  1  2013     1     1      517            515         2      830
    ##  2  2013     1     1      533            529         4      850
    ##  3  2013     1     1      542            540         2      923
    ##  4  2013     1     1      544            545        -1     1004
    ##  5  2013     1     1      554            600        -6      812
    ##  6  2013     1     1      554            558        -4      740
    ##  7  2013     1     1      555            600        -5      913
    ##  8  2013     1     1      557            600        -3      709
    ##  9  2013     1     1      557            600        -3      838
    ## 10  2013     1     1      558            600        -2      753
    ## # ... with 336,766 more rows, and 12 more variables: sched_arr_time <int>,
    ## #   arr_delay <dbl>, carrier <chr>, flight <int>, tailnum <chr>,
    ## #   origin <chr>, dest <chr>, air_time <dbl>, distance <dbl>, hour <dbl>,
    ## #   minute <dbl>, time_hour <dttm>
…
