…
The new data frame `by_dspn` has one row per discipline and only two columns:

-   **Finish** because it was the variable we grouped by
-   **Count\_dspn** because it was the sum we created

join
----

Recall the original data frame,

``` r
df1
## # A tibble: 40 × 3
##           Specgen      Finish Count
##             <chr>       <chr> <int>
## 1  Bajoran Female Engineering   242
## 2  Bajoran Female     Medical   274
## 3  Bajoran Female  Operations   303
## 4  Bajoran Female    Security   130
## 5  Bajoran Female    Tactical   135
## 6    Bajoran Male Engineering  1436
## 7    Bajoran Male     Medical   387
## 8    Bajoran Male  Operations   475
## 9    Bajoran Male    Security   304
## 10   Bajoran Male    Tactical   774
## # ... with 30 more rows
```
…
Copying the totals from `by_dspn` into a new column in `df1` and matching the correct rows by major is called *joining*.

We join data frames by telling R to match rows "by" the values in columns that the two data frames have in common, in this case, the **Finish** column. We're doing what's called a *left join*, where the operation returns all rows from `df1` and all the columns from both `df1` and `by_dspn`.

``` r
# join the majors totals to the original data frame
df2 <- left_join(df1, by_dspn, by = "Finish")

# examine the result
df2
## # A tibble: 40 × 4
##           Specgen      Finish Count Count_dspn
##             <chr>       <chr> <int>      <int>
## 1  Bajoran Female Engineering   242      12384
## 2  Bajoran Female     Medical   274       7501
## 3  Bajoran Female  Operations   303       8114
## 4  Bajoran Female    Security   130      11576
## 5  Bajoran Female    Tactical   135      15704
## 6    Bajoran Male Engineering  1436      12384
## 7    Bajoran Male     Medical   387       7501
## 8    Bajoran Male  Operations   475       8114
## 9    Bajoran Male    Security   304      11576
## 10   Bajoran Male    Tactical   774      15704
## # ... with 30 more rows
```
…
Now that we have total numbers of graduates by discipline, we can compute the percentage of totals for each Species/Sex group. I've rounded the percentages to one place.

``` r
# compute population fractions 
df2 <- df2 %>%
    mutate(Percent = round(100 * Count / Count_dspn, 1))

# arrange by major and percentages
df2 <- df2 %>%
    arrange(Finish, desc(Percent))

# have a look
df2
## # A tibble: 40 × 5
##            Specgen      Finish Count Count_dspn Percent
##              <chr>       <chr> <int>      <int>   <dbl>
## 1       Human Male Engineering  7476      12384    60.4
## 2     Bajoran Male Engineering  1436      12384    11.6
## 3      Vulcan Male Engineering  1305      12384    10.5
## 4     Human Female Engineering   873      12384     7.0
## 5    Vulcan Female Engineering   597      12384     4.8
## 6    Betazoid Male Engineering   388      12384     3.1
## 7   Bajoran Female Engineering   242      12384     2.0
## 8  Betazoid Female Engineering    67      12384     0.5
## 9       Human Male     Medical  3898       7501    52.0
## 10    Human Female     Medical  1889       7501    25.2
## # ... with 30 more rows
```
…
