…
length(b)
## [1] 1
```

## collapse a string with `|` (or) to search

Collapse is also useful for creating a string for OR searches. For
example, I can create a searchable state data frame,

``` r
df <- as.data.frame(state.x77)
df$State <- row.names(state.x77)
df <- as_tibble(df)
df
## # A tibble: 50 x 9
##    Population Income Illiteracy `Life Exp` Murder `HS Grad` Frost   Area
##  *      <dbl>  <dbl>      <dbl>      <dbl>  <dbl>     <dbl> <dbl>  <dbl>
##  1       3615   3624        2.1       69.0   15.1      41.3    20  50708
##  2        365   6315        1.5       69.3   11.3      66.7   152 566432
##  3       2212   4530        1.8       70.6    7.8      58.1    15 113417
##  4       2110   3378        1.9       70.7   10.1      39.9    65  51945
##  5      21198   5114        1.1       71.7   10.3      62.6    20 156361
##  6       2541   4884        0.7       72.1    6.8      63.9   166 103766
##  7       3100   5348        1.1       72.5    3.1      56     139   4862
##  8        579   4809        0.9       70.1    6.2      54.6   103   1982
##  9       8277   4815        1.3       70.7   10.7      52.6    11  54090
## 10       4931   4091        2         68.5   13.9      40.6    60  58073
## # ... with 40 more rows, and 1 more variable: State <chr>
```
…
