…
For compatibility with later data tidying, we convert the data set to a
tibble.

``` r
df <- as_tibble(df)

df
## # A tibble: 10,212 x 5
##     Year Age   Female  Male  Total
##    <int> <chr>  <dbl> <dbl>  <dbl>
##  1  1921 0      7865. 8134. 15999.
##  2  1921 1      7936. 8143. 16079.
##  3  1921 2      8025. 8240. 16265.
##  4  1921 3      8018. 8244. 16262.
##  5  1921 4      7926. 8155. 16080.
##  6  1921 5      7760. 7992. 15752.
##  7  1921 6      7531. 7769. 15300.
##  8  1921 7      7250. 7495. 14746.
##  9  1921 8      6927. 7181. 14108.
## 10  1921 9      6568. 6829. 13397.
## # ... with 10,202 more rows
```
…
We can filter the tibble if we are interested in specific years, for
example,

``` r
df <- df %>% 
    filter(Year >= 1990 & Year <= 1999)

df
## # A tibble: 1,110 x 5
##     Year   Age Female   Male  Total
##    <int> <dbl>  <dbl>  <dbl>  <dbl>
##  1  1990     0 21053. 22086. 43138.
##  2  1990     1 20444. 21367. 41810.
##  3  1990     2 20176. 21140. 41316.
##  4  1990     3 20516  21483. 41999.
##  5  1990     4 20679. 21646. 42326.
##  6  1990     5 20308. 21401. 41710.
##  7  1990     6 20140. 21331. 41471.
##  8  1990     7 19793. 20844. 40637.
##  9  1990     8 19298. 20301. 39599.
## 10  1990     9 18724. 19816. 38540.
## # ... with 1,100 more rows
```
…
